{
 "env.vars.CPATH": "<basedir>/modular:<basedir>/modular:<basedir>/allinone",
 "env.basedir": "<basedir>",
 "vars.cxxopts": "-c -std=c++17 -Wall -pedantic",
 "vars.lnkopts": "-fPIC",
 "rules.cxx": "g++ -o $out $cxxopts $in",
 "rules.lnk": "g++ -o $out $lnkopts $in",
 "goals.cxx.rule": "cxx",
 "goals.cxx.ins": [
  "<basedir>/modular/calc_primes.cpp",
  "<basedir>/modular/primes.cpp",
  "<basedir>/allinone/primes.cpp"
 ],
 "goals.cxx.out": "./bin/$in.o",
 "goals.lnk_mod.rule": "lnk",
 "goals.lnk_mod.in": [
  "<basedir>/modular/bin/calc_primes.o",
  "<basedir>/modular/bin/primes.o"
 ],
 "goals.lnk_mod.out": "<basedir>/modular/bin/primes",
 "goals.lnk_mon.rule": "lnk",
 "goals.lnk_mon.in": [
  "<basedir>/allinone/bin/primes.o"
 ],
 "goals.lnk_mon.out": "<basedir>/allinone/bin/primes",
 "paths.srcdir": "<basedir>",
 "paths.srcdir_mod": "<basedir>/modular",
 "paths.srcdir_mon": "<basedir>/allinone",
 "paths.srcns_mod": [
  "calc_primes.cpp",
  "primes.cpp"
 ],
 "paths.srcs_mod": [
  "<basedir>/modular/calc_primes.cpp",
  "<basedir>/modular/primes.cpp"
 ],
 "paths.srcs_mon": [
  "<basedir>/allinone/primes.cpp"
 ],
 "paths.srcs": [
  "<basedir>/modular/calc_primes.cpp",
  "<basedir>/modular/primes.cpp",
  "<basedir>/allinone/primes.cpp"
 ],
 "paths.headerdirs": [
  "<basedir>/modular",
  "<basedir>/modular",
  "<basedir>/allinone"
 ],
 "paths.obns_mod": [
  "calc_primes.o",
  "primes.o"
 ],
 "paths.obns_mon": [
  "primes.o"
 ],
 "paths.binsdir": "bin",
 "paths.bindir_mod": "<basedir>/modular/bin",
 "paths.bindir_mon": "<basedir>/allinone/bin",
 "paths.objs_mod": [
  "<basedir>/modular/bin/calc_primes.o",
  "<basedir>/modular/bin/primes.o"
 ],
 "paths.objs_mon": [
  "<basedir>/allinone/bin/primes.o"
 ],
 "paths.exe": "primes"
}