{
 "env.vars.CPATH": "include",
 "env.ninja_cmd": "ninja",
 "vars.ccopts": "-c -std=c99 -Wall -pedantic",
 "vars.lnkopts": "-fPIC",
 "rules.cc": "gcc -o $out $ccopts $in",
 "rules.lnk": "gcc -o $out $lnkopts $in",
 "goals.cc.rule": "cc",
 "goals.cc.ins": [
  "c/calc_fib.c",
  "c/fibonacci.c"
 ],
 "goals.cc.out": "bin/$in.o",
 "goals.lnk.rule": "lnk",
 "goals.lnk.in": [
  "bin/calc_fib.o",
  "bin/fibonacci.o"
 ],
 "goals.lnk.out": "bin/fibonacci",
 "paths.srcdir": "c",
 "paths.srcs": [
  "c/calc_fib.c",
  "c/fibonacci.c"
 ],
 "paths.headerdirs": [
  "include"
 ],
 "paths.objnames": [
  "calc_fib.o",
  "fibonacci.o"
 ],
 "paths.bindir": "bin",
 "paths.objs": [
  "bin/calc_fib.o",
  "bin/fibonacci.o"
 ],
 "paths.exe": "fibonacci"
}